[9, 76.25,18.75],
[11, 43.75,43.75],
[11, 51.25,45],
[13, 96.25,60],
[16, 115,46.25],
[28, 133.75,136.25],
[28, 138.75,141.25],
[30, 177.5,142.5],
[32, 120,168.75],
[34, 108.75,146.25],
[34, 97.5,133.75],
[35, 88.75,173.75],
[38, 71.25,138.75],
[44, 67.5,92.5],
[46, 46.25,82.5]
